%YAML 1.1
%TAG !u! tag:unity3d.com,2011:
--- !u!114 &11400000
MonoBehaviour:
  m_ObjectHideFlags: 0
  m_CorrespondingSourceObject: {fileID: 0}
  m_PrefabInternal: {fileID: 0}
  m_GameObject: {fileID: 0}
  m_Enabled: 1
  m_EditorHideFlags: 0
  m_Script: {fileID: 11500000, guid: 36e75182c88b14ee7bf56210b44f90a3, type: 3}
  m_Name: 1H_Spear_01
  m_EditorClassIdentifier: 
  gripTransform: {fileID: 4705688508082722, guid: 8f7b9e51f12775c488f4fa7905cef68a,
    type: 2}
  weaponPrefab: {fileID: 124464, guid: bc97a13f46e9e7b4d8d2bfa40fcdc1e4, type: 2}
  attackAnimations:
  - {fileID: 7400000, guid: 96f8270c0e4678d4580d41b43babe823, type: 3}
  - {fileID: 7400000, guid: c42fb2a62071d5f4faa8b8cc189a4387, type: 3}
  - {fileID: 7400000, guid: 958c581a3ea26cd4ebe3ba7d967fbb5d, type: 3}
  timeBetweenAnimationCycles: 0.5
  maxAttackRange: 2
  minDamage: 5
  maxDamage: 7
  damageDelay: 0.5
  attackSpeed: 1.2
