%YAML 1.1
%TAG !u! tag:unity3d.com,2011:
--- !u!114 &11400000
MonoBehaviour:
  m_ObjectHideFlags: 0
  m_CorrespondingSourceObject: {fileID: 0}
  m_PrefabInternal: {fileID: 0}
  m_GameObject: {fileID: 0}
  m_Enabled: 1
  m_EditorHideFlags: 0
  m_Script: {fileID: 11500000, guid: 8938686f2fec74834b463303abe56c16, type: 3}
  m_Name: SH_L1
  m_EditorClassIdentifier: 
  energyCost: 20
  particlePrefab: {fileID: 1770094935522392, guid: 7098bdbdcde165049872f566c6a00e5f,
    type: 2}
  abilityAnimation: {fileID: 7400000, guid: 55e87de746eaa574a9affbbe173dcbbd, type: 3}
  audioClips:
  - {fileID: 8300000, guid: 9649646d7f47b498ba586ed695507999, type: 3}
  extraHealth: 50
