%YAML 1.1
%TAG !u! tag:unity3d.com,2011:
--- !u!114 &11400000
MonoBehaviour:
  m_ObjectHideFlags: 0
  m_CorrespondingSourceObject: {fileID: 0}
  m_PrefabInternal: {fileID: 0}
  m_GameObject: {fileID: 0}
  m_Enabled: 1
  m_EditorHideFlags: 0
  m_Script: {fileID: 11500000, guid: 36e75182c88b14ee7bf56210b44f90a3, type: 3}
  m_Name: 1H_Club_01
  m_EditorClassIdentifier: 
  gripTransform: {fileID: 4705688508082722, guid: 55d53ea88fbc527438bdb8f5d546b114,
    type: 2}
  weaponPrefab: {fileID: 104734, guid: e5979c3ac636334478a20376bafe57d7, type: 2}
  attackAnimations:
  - {fileID: 7400000, guid: 9e5d42c64f4181e4e92729d62fa2d0fd, type: 3}
  - {fileID: 7400000, guid: 1fc94e9b71f1f5e4f97b6a0021007bf5, type: 3}
  - {fileID: 7400000, guid: fcc82476d966e864da60dc606a6adcb0, type: 3}
  timeBetweenAnimationCycles: 0.5
  maxAttackRange: 2
  minDamage: 3
  maxDamage: 6
  damageDelay: 0.5
  attackSpeed: 1.2
