%YAML 1.1
%TAG !u! tag:unity3d.com,2011:
--- !u!221 &22100000
AnimatorOverrideController:
  m_ObjectHideFlags: 0
  m_CorrespondingSourceObject: {fileID: 0}
  m_PrefabInternal: {fileID: 0}
  m_Name: Generic Override
  m_Controller: {fileID: 9100000, guid: e2cf68ff4b1ffda45a77f7307dd789b9, type: 2}
  m_Clips:
  - m_OriginalClip: {fileID: 7400000, guid: 793c887031d214145ac5f748e22d5dfb, type: 2}
    m_OverrideClip: {fileID: 7400000, guid: 08061e875324be84496c2c8dd94801b1, type: 3}
